<svg xmlns="http://www.w3.org/2000/svg" xmlns:xlink="http://www.w3.org/1999/xlink" x="0px" y="0px" width="85px" height="60px" viewBox="0 0 85 60">
<rect fill="#FFFFFF" width="85" height="60"/>
<g>
	<polygon fill="#F9A51A" points="14.4,16.9 4.5,26.5 4.5,43.1 24.3,43.1 34.2,33.5 34.2,16.9 	"/>
	<g fill="#231F20">
		<rect x="7" y="28.9" class="st2" width="4.2" height="11.8"/>
		<polygon points="16.9,36.4 20.6,36.4 20.6,40.7 24.3,40.7 24.3,28.9 20.6,28.9 20.6,33 16.9,33 16.9,28.9 13.1,28.9
			13.1,40.7 16.9,40.7 		"/>
		<polygon points="76.8,28.9 73.7,34.1 70.6,28.9 66.8,28.9 66.8,40.6 70.6,40.6 70.6,34.5 72.8,38.2 74.5,38.2
			76.8,34.5 76.8,40.6 80.5,40.6 80.5,28.9 		"/>
		<path d="M47.5,28.9h-2.1h-1.1l-4.2,11.7h3.7l0.5-1.5h4.3l0.5,1.5h3.7l-4.2-11.7L47.5,28.9z M45.1,36.4l1.3-4.1
			l1.3,4.1H45.1z"/>
		<polygon points="41.1,32.4 41.1,28.9 37.9,28.9 34.2,28.9 30.9,28.9 30.9,32.4 34.2,32.4 34.2,40.6 37.9,40.6
			37.9,32.4 		"/>
		<path d="M61.3,28.9H65v11.7h-3.7v-6.1l-3.7,6.1h-3.7V28.9h3.7v6.1L61.3,28.9z M59.3,27.9c1.9,0,3.5-1.6,3.5-3.5h-2
			c0,0.8-0.7,1.5-1.5,1.5s-1.5-0.7-1.5-1.5h-2C55.8,26.3,57.3,27.9,59.3,27.9z"/>
	</g>
</g>
</svg>
