<svg xmlns="http://www.w3.org/2000/svg" width="29.7px" height="44px" viewBox="0 0 29.7 44">
<path fill="#F68830" d="M14.8,42.5c-0.4,0-0.9-0.2-1.2-0.5c-0.4-0.4-0.8-1-1.4-1.8c-0.5-0.7-1.5-2.1-2.9-4.3c-1.4-2.1-2.6-4.2-3.6-6.3
	c-1.1-2.1-2-4.5-2.9-7.2c-0.9-2.8-1.4-5.3-1.4-7.6c0-3.7,1.3-6.9,3.9-9.5c2.6-2.6,5.7-3.9,9.4-3.9c3.6,0,6.8,1.3,9.4,3.9
	c2.6,2.6,4,5.8,4,9.5c0,3.6-1,7.7-3.1,12.2c-2,4.4-4.1,8.1-6.1,10.9l-3,4C15.7,42.3,15.3,42.5,14.8,42.5
	C14.8,42.5,14.8,42.5,14.8,42.5z M14.8,10.9c-1.1,0-2,0.4-2.8,1.2c-0.8,0.8-1.2,1.8-1.2,2.9c0,1.1,0.4,2,1.2,2.8
	c0.8,0.8,1.7,1.2,2.8,1.2c1.1,0,2.1-0.4,2.9-1.2c0.8-0.8,1.2-1.7,1.2-2.8c0-1.1-0.4-2.1-1.2-2.9C16.8,11.3,15.9,10.9,14.8,10.9z"/>
<path fill="#FFFFFF" d="M14.8,3c3.2,0,6,1.2,8.4,3.5c2.3,2.3,3.5,5.1,3.5,8.4c0,3.4-1,7.2-3,11.6s-4,7.9-5.9,10.6l-3,4
	c-0.3-0.4-0.8-1-1.3-1.7c-0.5-0.7-1.5-2.1-2.8-4.2C9.3,33,8.1,31,7.1,29c-1-2-2-4.3-2.8-7C3.4,19.4,3,17,3,14.9
	c0-3.3,1.2-6.1,3.5-8.4C8.8,4.2,11.5,3,14.8,3 M14.8,20.6c1.5,0,2.8-0.5,4-1.6c1.1-1.1,1.7-2.4,1.7-3.9c0-1.5-0.6-2.8-1.7-4
	c-1.1-1.1-2.4-1.7-4-1.7c-1.5,0-2.8,0.6-3.9,1.7c-1.1,1.1-1.6,2.4-1.6,4c0,1.5,0.5,2.8,1.6,3.9C12,20.1,13.3,20.6,14.8,20.6 M14.8,0
	c-4,0-7.6,1.5-10.4,4.3C1.5,7.2,0,10.8,0,14.9c0,2.4,0.5,5.1,1.4,8.1c0.9,2.8,1.9,5.3,3,7.4c1.1,2.1,2.3,4.3,3.7,6.4
	c1.4,2.1,2.3,3.6,2.9,4.3c0.6,0.8,1,1.4,1.4,1.8c0.6,0.7,1.4,1.1,2.3,1.1c0,0,0.1,0,0.1,0c0.9,0,1.8-0.5,2.3-1.2l3-4
	c2.1-2.9,4.2-6.6,6.3-11.1c2.1-4.7,3.2-9,3.2-12.8c0-4.1-1.5-7.7-4.4-10.5C22.3,1.5,18.8,0,14.8,0L14.8,0z M14.8,17.6
	c-0.7,0-1.3-0.2-1.8-0.8c-0.5-0.5-0.8-1.1-0.8-1.8c0-0.7,0.2-1.3,0.8-1.9c0.5-0.5,1-0.8,1.8-0.8c0.7,0,1.3,0.2,1.8,0.8
	c0.6,0.6,0.8,1.1,0.8,1.8c0,0.7-0.2,1.2-0.8,1.8C16.1,17.4,15.5,17.6,14.8,17.6L14.8,17.6z"/>
</svg>
